<?xml version="1.0" encoding="UTF-8"?>
<svg width="510px" height="510px" viewBox="0 0 510 510" version="1.1" xmlns="http://www.w3.org/2000/svg" xmlns:xlink="http://www.w3.org/1999/xlink">
    <g id="Page-1" stroke="none" stroke-width="1" fill="none" fill-rule="evenodd">
        <g id="add-button-inside-black-circle" transform="translate(255.000000, 255.000000) rotate(-315.000000) translate(-255.000000, -255.000000) " fill="#000000" fill-rule="nonzero">
            <path d="M255,0 C114.75,0 0,114.75 0,255 C0,395.25 114.75,510 255,510 C395.25,510 510,395.25 510,255 C510,114.75 395.25,0 255,0 Z M382.5,280.5 L280.5,280.5 L280.5,382.5 L229.5,382.5 L229.5,280.5 L127.5,280.5 L127.5,229.5 L229.5,229.5 L229.5,127.5 L280.5,127.5 L280.5,229.5 L382.5,229.5 L382.5,280.5 Z" id="Shape"></path>
        </g>
    </g>
</svg>