<?xml version="1.0" encoding="UTF-8"?>
<svg width="418px" height="470px" viewBox="0 0 418 470" version="1.1" xmlns="http://www.w3.org/2000/svg" xmlns:xlink="http://www.w3.org/1999/xlink">
    <!-- Generator: Sketch 52.2 (67145) - http://www.bohemiancoding.com/sketch -->
    <title>invoice</title>
    <desc>Created with Sketch.</desc>
    <g id="Page-1" stroke="none" stroke-width="1" fill="none" fill-rule="evenodd">
        <g id="invoice" transform="translate(-0.269823, 0.000000)" fill="#000000" fill-rule="nonzero">
            <path d="M334.828,384.339 C336.598257,382.917987 337.627535,380.770041 337.626,378.5 L337.626,37.5 C337.626,33.357 334.269,30 330.126,30 L113.141,30 C107.79,12.647 91.605,0 72.52,0 C53.742,0 37.311,12.514 31.906,30 L7.874,30 C5.88479501,29.9997347 3.97698653,30.7898258 2.57040618,32.1964062 C1.16382583,33.6029865 0.37373472,35.510795 0.374,37.5 L0.374,462.5 C0.374,466.643 3.731,470 7.874,470 L246.061,470 C248.486,470 250.588,468.908 251.963,467.206 L334.828,384.339 Z M253.626,444.328 L253.626,386 L311.953,386 L253.626,444.328 Z M72.52,15 C83.183,15 92.442,21.105 97.002,30 L48.036,30 C52.64,21.052 62.011,15 72.52,15 Z M15.374,45 L100.02,45 L100.02,97.5 C100.02,104.393 94.413,110 87.52,110 C80.627,110 75.02,104.393 75.02,97.5 L75.02,67.5 C75.02,63.357 71.663,60 67.52,60 C63.377,60 60.02,63.357 60.02,67.5 L60.02,97.5 C60.02,112.663 72.357,125 87.52,125 C102.683,125 115.02,112.663 115.02,97.5 L115.02,45 L322.626,45 L322.626,371 L246.126,371 C244.136795,370.999735 242.228987,371.789826 240.822406,373.196406 C239.415826,374.602987 238.625735,376.510795 238.626,378.5 L238.626,455 L15.374,455 L15.374,45 Z" id="Shape"></path>
            <path d="M270.126,345.5 C274.269,345.5 277.626,342.143 277.626,338 C277.626,333.857 274.269,330.5 270.126,330.5 L67.874,330.5 C63.731,330.5 60.374,333.857 60.374,338 C60.374,342.143 63.731,345.5 67.874,345.5 L270.126,345.5 Z M67.874,300.5 L270.126,300.5 C274.269,300.5 277.626,297.143 277.626,293 C277.626,288.857 274.269,285.5 270.126,285.5 L67.874,285.5 C63.731,285.5 60.374,288.857 60.374,293 C60.374,297.143 63.731,300.5 67.874,300.5 Z M67.874,255.5 L270.126,255.5 C274.269,255.5 277.626,252.143 277.626,248 C277.626,243.857 274.269,240.5 270.126,240.5 L67.874,240.5 C63.731,240.5 60.374,243.857 60.374,248 C60.374,252.143 63.731,255.5 67.874,255.5 Z M67.874,210.5 L270.126,210.5 C274.269,210.5 277.626,207.143 277.626,203 C277.626,198.857 274.269,195.5 270.126,195.5 L67.874,195.5 C63.731,195.5 60.374,198.857 60.374,203 C60.374,207.143 63.731,210.5 67.874,210.5 Z M67.874,165.5 L270.126,165.5 C274.269,165.5 277.626,162.143 277.626,158 C277.626,153.857 274.269,150.5 270.126,150.5 L67.874,150.5 C63.731,150.5 60.374,153.857 60.374,158 C60.374,162.143 63.731,165.5 67.874,165.5 Z M370.126,30 L360.126,30 C355.983,30 352.626,33.357 352.626,37.5 C352.626,41.643 355.983,45 360.126,45 L362.626,45 L362.626,455 L282.554,455 C278.411,455 275.054,458.357 275.054,462.5 C275.054,466.643 278.411,470 282.554,470 L370.126,470 C374.269,470 377.626,466.643 377.626,462.5 L377.626,37.5 C377.626,33.357 374.269,30 370.126,30 Z M410.126,30 L400.126,30 C395.983,30 392.626,33.357 392.626,37.5 C392.626,41.643 395.983,45 400.126,45 L402.626,45 L402.626,455 L400.126,455 C395.983,455 392.626,458.357 392.626,462.5 C392.626,466.643 395.983,470 400.126,470 L410.126,470 C414.269,470 417.626,466.643 417.626,462.5 L417.626,37.5 C417.626,33.357 414.269,30 410.126,30 Z" id="Shape"></path>
        </g>
    </g>
</svg>