<?xml version="1.0" encoding="UTF-8"?>
<svg width="512px" height="512px" viewBox="0 0 512 512" version="1.1" xmlns="http://www.w3.org/2000/svg" xmlns:xlink="http://www.w3.org/1999/xlink">
    <!-- Generator: Sketch 52.2 (67145) - http://www.bohemiancoding.com/sketch -->
    <title>magnifying-glass2</title>
    <desc>Created with Sketch.</desc>
    <g id="Page-1" stroke="none" stroke-width="1" fill="none" fill-rule="evenodd">
        <g id="magnifying-glass2" fill="#000000">
            <path d="M310,190 C304.48,190 300,194.48 300,200 C300,205.52 304.48,210 310,210 C315.52,210 320,205.52 320,200 C320,194.48 315.52,190 310,190 Z" id="Path"></path>
            <path d="M500.281,443.719 L366.801,310.239 C388.546,277.485 400,239.555 400,200 C400,89.72 310.28,0 200,0 C89.72,0 0,89.72 0,200 C0,310.28 89.72,400 200,400 C239.556,400 277.486,388.545 310.239,366.802 L347.134,403.697 L347.15,403.713 L443.718,500.281 C451.276,507.838 461.319,512 472,512 C482.681,512 492.724,507.838 500.278,500.284 C507.837,492.731 512,482.687 512,472 C512,461.313 507.837,451.269 500.281,443.719 Z M305.536,345.727 L305.534,345.729 C274.667,368.149 238.175,380 200,380 C100.748,380 20,299.252 20,200 C20,100.748 100.748,20 200,20 C299.252,20 380,100.748 380,200 C380,238.175 368.149,274.667 345.728,305.535 C334.532647,320.966855 320.967855,334.531647 305.536,345.727 Z M326.516,354.793 C336.859658,346.332346 346.332346,336.859658 354.793,326.516 L383.164,354.887 C374.532127,365.074373 365.074373,374.532127 354.887,383.164 L326.516,354.793 Z M486.139,486.139 C482.359,489.919 477.338,492 472,492 C466.662,492 461.641,489.919 457.861,486.139 L369.066,397.344 C379.196235,388.650268 388.649268,379.197235 397.343,369.067 L486.141,457.865 C489.904844,461.604119 492.014861,466.694596 492,472 C492.014285,477.306858 489.90362,482.398601 486.139,486.139 Z" id="Shape" fill-rule="nonzero"></path>
            <path d="M200,40 C111.775,40 40,111.775 40,200 C40,288.225 111.775,360 200,360 C288.225,360 360,288.225 360,200 C360,111.775 288.225,40 200,40 Z M200,340 C122.804,340 60,277.196 60,200 C60,122.804 122.804,60 200,60 C277.196,60 340,122.804 340,200 C340,277.196 277.196,340 200,340 Z" id="Shape" fill-rule="nonzero"></path>
            <path d="M312.065,157.073 C303.454,134.661 288.461,115.499 268.705,101.66 C248.479,87.49 224.721,80 200,80 C194.478,80 190,84.478 190,90 C190,95.522 194.478,100 200,100 C241.099,100 278.631,125.818 293.396,164.247 C294.880645,168.111854 298.592798,170.662693 302.733,170.663 C303.958553,170.662326 305.173495,170.43588 306.317,169.995 C311.472,168.014 314.046,162.229 312.065,157.073 Z" id="Path"></path>
        </g>
    </g>
</svg>