<?xml version="1.0" encoding="UTF-8"?>
<svg width="529px" height="527px" viewBox="0 0 529 527" version="1.1" xmlns="http://www.w3.org/2000/svg" xmlns:xlink="http://www.w3.org/1999/xlink">
    <!-- Generator: Sketch 52.2 (67145) - http://www.bohemiancoding.com/sketch -->
    <title>pencil</title>
    <desc>Created with Sketch.</desc>
    <g id="Page-1" stroke="none" stroke-width="1" fill="none" fill-rule="evenodd">
        <g id="pencil" fill="#000000" fill-rule="nonzero">
            <path d="M328.883,88.125 L436.473,195.714 L164.133,468.054 L56.604,360.465 L328.883,88.125 Z M518.113,62.177 L470.132,14.196 C451.589,-4.347 421.479,-4.347 402.873,14.196 L356.912,60.157 L464.502,167.747 L518.113,114.136 C532.495,99.753 532.495,76.559 518.113,62.177 Z M0.3,511.69 C-1.658,520.502 6.298,528.398 15.111,526.255 L135.002,497.186 L27.473,389.597 L0.3,511.69 Z" id="Shape"></path>
        </g>
    </g>
</svg>