<?xml version="1.0" encoding="UTF-8" standalone="no"?>
<!DOCTYPE svg PUBLIC "-//W3C//DTD SVG 1.1//EN" "http://www.w3.org/Graphics/SVG/1.1/DTD/svg11.dtd">
<svg width="100%" height="100%" viewBox="0 0 692 200" version="1.1" xmlns="http://www.w3.org/2000/svg" xmlns:xlink="http://www.w3.org/1999/xlink" xml:space="preserve" xmlns:serif="http://www.serif.com/" style="fill-rule:evenodd;clip-rule:evenodd;stroke-linejoin:round;stroke-miterlimit:1.41421;">
    <g id="LOGO" transform="matrix(1,0,0,1,-489.394,-2.26485e-14)">
        <g transform="matrix(4.16667,0,0,4.16667,489.394,135.398)">
            <path d="M0,-17.182L12.959,-17.182L12.959,-13.82L3.755,-13.82L3.755,-10.335L11.855,-10.335L11.855,-6.971L3.755,-6.971L3.755,-3.364L13.083,-3.364L13.083,0L0,0L0,-17.182Z" style="fill:rgb(67,74,90);fill-rule:nonzero;"/>
        </g>
        <g transform="matrix(4.16667,0,0,4.16667,833.537,74.2417)">
            <path d="M0,12.173L2.232,9.497C3.779,10.774 5.4,11.583 7.363,11.583C8.91,11.583 9.843,10.97 9.843,9.965L9.843,9.915C9.843,8.957 9.253,8.468 6.381,7.73C2.92,6.847 0.687,5.889 0.687,2.478L0.687,2.428C0.687,-0.688 3.19,-2.75 6.701,-2.75C9.203,-2.75 11.34,-1.965 13.083,-0.566L11.118,2.282C9.597,1.227 8.1,0.587 6.651,0.587C5.204,0.587 4.443,1.251 4.443,2.084L4.443,2.134C4.443,3.263 5.178,3.631 8.148,4.393C11.634,5.3 13.598,6.553 13.598,9.547L13.598,9.597C13.598,13.008 10.996,14.923 7.289,14.923C4.689,14.923 2.063,14.014 0,12.173" style="fill:rgb(67,74,90);fill-rule:nonzero;"/>
        </g>
        <g transform="matrix(4.16667,0,0,4.16667,980.855,99.3979)">
            <path d="M0,0.098L0,0.048C0,-2.896 -2.16,-5.352 -5.204,-5.352C-8.248,-5.352 -10.359,-2.946 -10.359,0L-10.359,0.048C-10.359,2.994 -8.198,5.448 -5.154,5.448C-2.112,5.448 0,3.044 0,0.098M-14.31,0.098L-14.31,0.048C-14.31,-4.836 -10.456,-8.836 -5.154,-8.836C0.146,-8.836 3.951,-4.884 3.951,0L3.951,0.048C3.951,4.932 0.098,8.934 -5.204,8.934C-10.506,8.934 -14.31,4.982 -14.31,0.098" style="fill:rgb(67,74,90);fill-rule:nonzero;"/>
        </g>
        <g transform="matrix(4.16667,0,0,4.16667,1030.72,95.0563)">
            <path d="M0,2.182L0,-7.635L3.779,-7.635L3.779,2.084C3.779,4.882 5.178,6.331 7.487,6.331C9.793,6.331 11.192,4.932 11.192,2.208L11.192,-7.635L14.971,-7.635L14.971,2.06C14.971,7.264 12.051,9.817 7.437,9.817C2.822,9.817 0,7.238 0,2.182" style="fill:rgb(67,74,90);fill-rule:nonzero;"/>
        </g>
        <g transform="matrix(4.16667,0,0,4.16667,1129.66,135.398)">
            <path d="M0,-17.182L3.779,-17.182L3.779,-3.438L12.345,-3.438L12.345,0L0,0L0,-17.182Z" style="fill:rgb(67,74,90);fill-rule:nonzero;"/>
        </g>
        <g transform="matrix(4.16667,0,0,4.16667,736.68,82.3954)">
            <path d="M0,3.507C-0.969,4.066 -2.207,3.735 -2.766,2.766C-3.325,1.798 -2.993,0.559 -2.025,0.001C-1.056,-0.559 0.182,-0.227 0.741,0.741C1.3,1.71 0.968,2.948 0,3.507" style="fill:rgb(58,165,238);fill-rule:nonzero;"/>
        </g>
        <g transform="matrix(4.16667,0,0,4.16667,740.838,112.087)">
            <path d="M0,2.198C-0.607,2.549 -1.383,2.34 -1.733,1.734C-2.083,1.127 -1.876,0.35 -1.269,0C-0.662,-0.351 0.115,-0.142 0.465,0.464C0.815,1.071 0.607,1.847 0,2.198" style="fill:rgb(58,165,238);fill-rule:nonzero;"/>
        </g>
        <g transform="matrix(4.16667,0,0,4.16667,677.63,149.376)">
            <path d="M0,1.614C-0.445,1.872 -1.016,1.718 -1.273,1.273C-1.53,0.827 -1.378,0.256 -0.932,-0.001C-0.486,-0.258 0.084,-0.106 0.342,0.34C0.599,0.786 0.446,1.356 0,1.614" style="fill:rgb(58,165,238);fill-rule:nonzero;"/>
        </g>
        <g transform="matrix(4.16667,0,0,4.16667,707.259,153.261)">
            <path d="M0,1.614C-0.445,1.872 -1.016,1.719 -1.273,1.273C-1.53,0.827 -1.378,0.257 -0.932,-0.001C-0.486,-0.258 0.084,-0.106 0.342,0.34C0.599,0.786 0.446,1.356 0,1.614" style="fill:rgb(58,165,238);fill-rule:nonzero;"/>
        </g>
        <g transform="matrix(4.16667,0,0,4.16667,730.141,140.72)">
            <path d="M0,1.614C-0.445,1.872 -1.016,1.719 -1.273,1.273C-1.53,0.827 -1.378,0.257 -0.932,-0.001C-0.486,-0.258 0.084,-0.106 0.342,0.34C0.599,0.786 0.446,1.357 0,1.614" style="fill:rgb(58,165,238);fill-rule:nonzero;"/>
        </g>
        <g transform="matrix(4.16667,0,0,4.16667,658.421,128.722)">
            <path d="M0,2.669C-0.737,3.095 -1.679,2.842 -2.105,2.105C-2.53,1.368 -2.278,0.425 -1.541,0C-0.804,-0.426 0.139,-0.173 0.564,0.564C0.989,1.301 0.737,2.243 0,2.669" style="fill:rgb(58,165,238);fill-rule:nonzero;"/>
        </g>
        <g transform="matrix(4.16667,0,0,4.16667,654.033,99.4479)">
            <path d="M0,3.777C-1.043,4.379 -2.377,4.022 -2.979,2.979C-3.581,1.936 -3.224,0.602 -2.181,0C-1.138,-0.602 0.196,-0.245 0.798,0.798C1.4,1.841 1.043,3.175 0,3.777" style="fill:rgb(58,165,238);fill-rule:nonzero;"/>
        </g>
        <g transform="matrix(4.16667,0,0,4.16667,666.213,72.595)">
            <path d="M0,4.579C-1.264,5.309 -2.881,4.876 -3.611,3.611C-4.341,2.347 -3.908,0.73 -2.644,0C-1.379,-0.73 0.238,-0.296 0.967,0.968C1.697,2.232 1.264,3.849 0,4.579" style="fill:rgb(58,165,238);fill-rule:nonzero;"/>
        </g>
        <g transform="matrix(4.16667,0,0,4.16667,690.483,58.1595)">
            <path d="M0,4.897C-1.352,5.678 -3.081,5.214 -3.862,3.862C-4.643,2.51 -4.179,0.781 -2.827,0C-1.475,-0.781 0.254,-0.317 1.035,1.035C1.815,2.387 1.352,4.116 0,4.897" style="fill:rgb(58,165,238);fill-rule:nonzero;"/>
        </g>
        <g transform="matrix(4.16667,0,0,4.16667,717.298,62.1104)">
            <path d="M0,4.396C-1.214,5.096 -2.766,4.681 -3.467,3.467C-4.167,2.253 -3.751,0.701 -2.538,0.001C-1.324,-0.7 0.228,-0.284 0.929,0.929C1.63,2.143 1.213,3.695 0,4.396" style="fill:rgb(58,165,238);fill-rule:nonzero;"/>
        </g>
        <g transform="matrix(4.16667,0,0,4.16667,774.908,49.4829)">
            <path d="M0,6.722C-1.857,7.794 -4.23,7.158 -5.301,5.302C-6.374,3.445 -5.737,1.072 -3.881,0.001C-2.025,-1.072 0.349,-0.436 1.42,1.421C2.492,3.278 1.856,5.65 0,6.722" style="fill:rgb(58,165,238);fill-rule:nonzero;"/>
        </g>
        <g transform="matrix(4.16667,0,0,4.16667,782.876,106.393)">
            <path d="M0,4.213C-1.163,4.885 -2.65,4.486 -3.322,3.323C-3.993,2.159 -3.595,0.672 -2.432,0C-1.269,-0.672 0.22,-0.273 0.891,0.89C1.562,2.053 1.164,3.541 0,4.213" style="fill:rgb(58,165,238);fill-rule:nonzero;"/>
        </g>
        <g transform="matrix(4.16667,0,0,4.16667,661.721,177.867)">
            <path d="M0,3.094C-0.854,3.588 -1.947,3.294 -2.44,2.44C-2.933,1.585 -2.641,0.492 -1.786,-0.001C-0.931,-0.494 0.162,-0.202 0.655,0.653C1.149,1.507 0.856,2.6 0,3.094" style="fill:rgb(58,165,238);fill-rule:nonzero;"/>
        </g>
        <g transform="matrix(4.16667,0,0,4.16667,718.515,185.313)">
            <path d="M0,3.094C-0.854,3.588 -1.947,3.294 -2.44,2.44C-2.933,1.585 -2.641,0.492 -1.786,-0.001C-0.932,-0.494 0.162,-0.202 0.655,0.653C1.149,1.507 0.856,2.6 0,3.094" style="fill:rgb(58,165,238);fill-rule:nonzero;"/>
        </g>
        <g transform="matrix(4.16667,0,0,4.16667,762.374,161.275)">
            <path d="M0,3.094C-0.854,3.588 -1.947,3.294 -2.44,2.44C-2.933,1.585 -2.641,0.492 -1.786,-0.001C-0.931,-0.494 0.162,-0.202 0.655,0.653C1.149,1.507 0.856,2.6 0,3.094" style="fill:rgb(58,165,238);fill-rule:nonzero;"/>
        </g>
        <g transform="matrix(4.16667,0,0,4.16667,624.903,138.282)">
            <path d="M0,5.115C-1.413,5.931 -3.218,5.446 -4.034,4.033C-4.85,2.622 -4.366,0.814 -2.953,-0.001C-1.541,-0.816 0.266,-0.333 1.082,1.08C1.897,2.493 1.413,4.299 0,5.115" style="fill:rgb(58,165,238);fill-rule:nonzero;"/>
        </g>
        <g transform="matrix(4.16667,0,0,4.16667,616.494,82.1666)">
            <path d="M0,7.24C-2,8.394 -4.557,7.71 -5.71,5.711C-6.865,3.711 -6.18,1.154 -4.181,0C-2.182,-1.154 0.375,-0.47 1.53,1.53C2.684,3.529 1.999,6.086 0,7.24" style="fill:rgb(58,165,238);fill-rule:nonzero;"/>
        </g>
        <g transform="matrix(4.16667,0,0,4.16667,639.84,30.6966)">
            <path d="M0,8.777C-2.424,10.176 -5.523,9.346 -6.921,6.922C-8.321,4.498 -7.491,1.4 -5.067,0.001C-2.643,-1.399 0.456,-0.568 1.854,1.856C3.254,4.279 2.424,7.378 0,8.777" style="fill:rgb(58,165,238);fill-rule:nonzero;"/>
        </g>
        <g transform="matrix(4.16667,0,0,4.16667,686.358,3.02912)">
            <path d="M0,9.386C-2.592,10.883 -5.906,9.994 -7.402,7.402C-8.899,4.811 -8.011,1.496 -5.419,0.001C-2.827,-1.497 0.487,-0.609 1.983,1.984C3.48,4.575 2.592,7.889 0,9.386" style="fill:rgb(58,165,238);fill-rule:nonzero;"/>
        </g>
        <g transform="matrix(4.16667,0,0,4.16667,737.755,10.6008)">
            <path d="M0,8.426C-2.327,9.768 -5.301,8.972 -6.645,6.645C-7.988,4.319 -7.191,1.344 -4.865,0.001C-2.538,-1.342 0.437,-0.545 1.78,1.781C3.124,4.108 2.326,7.082 0,8.426" style="fill:rgb(58,165,238);fill-rule:nonzero;"/>
        </g>
        <g transform="matrix(4.16667,0,0,4.16667,674.966,103.177)">
            <path d="M0,0C0,1.786 1.448,3.234 3.234,3.234C5.02,3.234 6.468,1.786 6.468,0C6.468,-1.786 5.02,-3.234 3.234,-3.234C1.448,-3.234 0,-1.786 0,0" style="fill:rgb(58,165,238);fill-rule:nonzero;"/>
        </g>
    </g>
</svg>
