<?xml version="1.0" encoding="UTF-8"?>
<svg width="512px" height="512px" viewBox="0 0 512 512" version="1.1" xmlns="http://www.w3.org/2000/svg" xmlns:xlink="http://www.w3.org/1999/xlink">
    <!-- Generator: Sketch 52.2 (67145) - http://www.bohemiancoding.com/sketch -->
    <title>email</title>
    <desc>Created with Sketch.</desc>
    <g id="Page-1" stroke="none" stroke-width="1" fill="none" fill-rule="evenodd">
        <g id="email" fill="#FFFFFF">
            <path d="M511.991,196.243 C511.991,196.064 511.897,195.91 511.889,195.74 C511.836,195.149 511.719,194.565 511.539,193.999 C511.421,193.494 511.258,193 511.053,192.523 C510.809,192.071 510.524,191.642 510.2,191.243 C509.862,190.754 509.473,190.302 509.039,189.895 C508.902,189.775 508.843,189.613 508.698,189.502 L426.659,125.767 L426.659,59.71 C426.659,45.572 415.197,34.11 401.059,34.11 L308.583,34.11 L271.556,5.361 C262.407,-1.767 249.584,-1.767 240.435,5.361 L203.401,34.11 L110.925,34.11 C96.787,34.11 85.325,45.571 85.325,59.71 L85.325,125.767 L3.294,189.502 C3.149,189.613 3.089,189.775 2.953,189.895 C2.519,190.302 2.13,190.754 1.792,191.243 C1.468,191.642 1.182,192.071 0.939,192.523 C0.732,192.999 0.569,193.493 0.453,193.999 C0.275,194.554 0.158,195.126 0.103,195.706 C0.103,195.877 0.001,196.03 0.001,196.209 L0.001,486.376 C0.035,489.124 0.516,491.847 1.426,494.44 C-0.533,497.394 -0.441,501.256 1.655,504.114 C3.751,506.972 7.407,508.22 10.813,507.24 C15.125,510.321 20.293,511.977 25.593,511.976 L486.393,511.976 C491.715,511.965 496.899,510.285 501.215,507.172 C501.943,507.396 502.698,507.519 503.459,507.539 C506.576,507.557 509.45,505.859 510.938,503.12 C512.426,500.381 512.287,497.046 510.576,494.441 C511.483,491.848 511.961,489.124 511.993,486.377 L511.993,196.243 L511.991,196.243 Z M250.871,18.827 C253.851,16.459 258.071,16.459 261.051,18.827 L280.737,34.11 L231.244,34.11 L250.871,18.827 Z M27.708,494.91 L250.872,321.564 C253.854,319.21 258.062,319.21 261.044,321.564 L484.275,494.91 L27.708,494.91 Z M494.925,481.581 L271.539,308.09 C262.396,300.972 249.587,300.972 240.444,308.09 L17.058,481.581 L17.058,209.239 L156.894,317.826 C160.62,320.715 165.982,320.037 168.871,316.311 C171.76,312.585 171.082,307.223 167.356,304.334 L25.293,194.016 L85.325,147.373 L85.325,213.31 C85.325,218.023 89.146,221.843 93.858,221.843 C98.571,221.843 102.391,218.022 102.391,213.31 L102.391,59.71 C102.391,54.997 106.211,51.177 110.924,51.177 L401.057,51.177 C405.77,51.177 409.59,54.997 409.59,59.71 L409.59,213.31 C409.59,218.023 413.41,221.843 418.123,221.843 C422.836,221.843 426.656,218.022 426.656,213.31 L426.656,147.373 L486.688,194.016 L344.371,304.531 C340.648,307.422 339.974,312.784 342.865,316.508 C345.756,320.231 351.118,320.905 354.842,318.014 L494.925,209.24 L494.925,481.581 Z" id="Shape" fill-rule="nonzero"></path>
            <path d="M170.658,110.91 L341.325,110.91 C346.038,110.91 349.858,107.09 349.858,102.377 C349.858,97.664 346.038,93.844 341.325,93.844 L170.658,93.844 C165.945,93.844 162.125,97.664 162.125,102.377 C162.125,107.09 165.945,110.91 170.658,110.91 Z" id="Path"></path>
            <path d="M349.858,153.577 C349.858,148.864 346.038,145.044 341.325,145.044 L170.658,145.044 C165.945,145.044 162.125,148.865 162.125,153.577 C162.125,158.29 165.945,162.11 170.658,162.11 L341.325,162.11 C346.038,162.11 349.858,158.289 349.858,153.577 Z" id="Path"></path>
            <path d="M349.858,204.777 C349.858,200.064 346.038,196.244 341.325,196.244 L264.525,196.244 C259.812,196.244 255.992,200.064 255.992,204.777 C255.992,209.49 259.812,213.31 264.525,213.31 L341.325,213.31 C346.038,213.31 349.858,209.489 349.858,204.777 Z" id="Path"></path>
        </g>
    </g>
</svg>